R - An Introduction – Welcome to HKU MSDA Bootcamp 2025
…
# A tibble: 3 × 1
     id
  <dbl>
1     1
2     2
3     3

Exercise: How would you subset the observation in the third row and the fifth column?

##| output-location: fragment

# get everything besides first row
addh[-1, ]

# A tibble: 2,999 × 11
      id   age gender income logincome debt     love nocheating money paypercent
   <dbl> <dbl> <chr>   <dbl>     <dbl> <chr>   <dbl>      <dbl> <dbl>      <dbl>
 1     2    22 male   11617.      9.36 nodebt     10         10     3         56
 2     3    18 female 16189.      9.69 yesdebt    10          3     5         42
 3     4    26 female 18194.      9.81 yesdebt     2          1     3         82
 4     5    27 female 24484.     10.1  yesdebt     5         10     9         93
 5     6    21 female 22353.     10.0  nodebt     10          4     9         42
 6     7    19 male   11842.      9.38 yesdebt     3         10     9         89
 7     8    27 female 19874.      9.90 nodebt      4         10     7         55
 8     9    18 male   27422.     10.2  nodebt      1         10     3         43
 9    10    25 female  9968.      9.21 yesdebt     6          3     8         53
10    11    24 female 26354.     10.2  nodebt     10         10    10         52
# ℹ 2,989 more rows
# ℹ 1 more variable: logpaypercent <dbl>
…
